{"rows":[{"field_date":"\u003Ctime datetime=\u00222023-01-10T12:00:00Z\u0022\u003EJan 10, 2023\u003C\/time\u003E\n","field_tech_session":"","field_main_presentation":"ASHRAE Standard 241: Control of Infectious Aerosols; https:\/\/ashraeny.org\/meetinginfo.php","field_pdh":"2","field_theme":"Membership Promotion","field_download":""},{"field_date":"\u003Ctime datetime=\u00222018-11-27T12:00:00Z\u0022\u003ENov 27, 2018\u003C\/time\u003E\n","field_tech_session":"test tech session lorem ipsum doloret","field_main_presentation":"main presentation lorem ipsum doloret","field_pdh":"2","field_theme":"Membership Promotion","field_download":""},{"field_date":"\u003Ctime datetime=\u00222018-06-22T12:00:00Z\u0022\u003EJun 22, 2018\u003C\/time\u003E\n","field_tech_session":"Industrial Arts Brewery Tour","field_main_presentation":"Chimney and Gas Vent Design","field_pdh":"1.5","field_theme":"Membership Promotion","field_download":"\/sites\/default\/files\/events\/MtgNotice0618.pdf"},{"field_date":"\u003Ctime datetime=\u00222018-05-23T12:00:00Z\u0022\u003EMay 23, 2018\u003C\/time\u003E\n","field_tech_session":"TBD","field_main_presentation":"Golf Outing","field_pdh":"","field_theme":"Research Promotion","field_download":"\/sites\/default\/files\/events\/2018GolfOuting-a.pdf"},{"field_date":"\u003Ctime datetime=\u00222018-04-11T12:00:00Z\u0022\u003EApr 11, 2018\u003C\/time\u003E\n","field_tech_session":"Steam Systems, Spirax Sarco","field_main_presentation":"Fundamentals of Steam Utilization","field_pdh":"2","field_theme":"History, Past Presidents","field_download":"\/sites\/default\/files\/events\/MtgNotice0418.pdf"},{"field_date":"\u003Ctime datetime=\u00222018-03-14T12:00:00Z\u0022\u003EMar 14, 2018\u003C\/time\u003E\n","field_tech_session":"TBD","field_main_presentation":"Kitchen Hood Filtration, Andrey Livchak, DL","field_pdh":"1","field_theme":"History, Past Presidents","field_download":"\/sites\/default\/files\/events\/MtgNotice0318a.pdf"},{"field_date":"\u003Ctime datetime=\u00222018-02-15T12:00:00Z\u0022\u003EFeb 15, 2018\u003C\/time\u003E\n","field_tech_session":"TBD","field_main_presentation":"Tour Bryant Park Cogen Plant","field_pdh":"","field_theme":"Refrigeration","field_download":"\/sites\/default\/files\/events\/MtgNotice0218.pdf"},{"field_date":"\u003Ctime datetime=\u00222018-01-10T12:00:00Z\u0022\u003EJan 10, 2018\u003C\/time\u003E\n","field_tech_session":"Overview of NY Power Aythority","field_main_presentation":"Design Methods of Solar Systems","field_pdh":"1","field_theme":"Government Affairs","field_download":"\/sites\/default\/files\/events\/MtgNotice0118.pdf"},{"field_date":"\u003Ctime datetime=\u00222017-12-13T12:00:00Z\u0022\u003EDec 13, 2017\u003C\/time\u003E\n","field_tech_session":"Chillers 101","field_main_presentation":"Johnson Controls Christmas - Party @ Bull \u0026amp; Barrell","field_pdh":"1","field_theme":"Research Promotion","field_download":"\/sites\/default\/files\/events\/MtgNotice1217.pdf"},{"field_date":"\u003Ctime datetime=\u00222017-11-15T12:00:00Z\u0022\u003ENov 15, 2017\u003C\/time\u003E\n","field_tech_session":"Boiler Performance Optimization","field_main_presentation":"IAQ Residential Buildings - Thermal Systems Tour","field_pdh":"3","field_theme":"Student Activities","field_download":"\/sites\/default\/files\/events\/MtgNotice1117_0.pdf"}],"pager":{"current_page":0,"total_items":"91","total_pages":10,"items_per_page":10}}