{"rows":[{"field_newsletter_date":"\u003Ctime datetime=\u00222018-06-01T12:00:00Z\u0022\u003EJune 2018\u003C\/time\u003E\n","field_newsletter":"\/sites\/default\/files\/newsletters\/Newsletter1806.pdf"},{"field_newsletter_date":"\u003Ctime datetime=\u00222017-12-13T12:00:00Z\u0022\u003EDecember 2017\u003C\/time\u003E\n","field_newsletter":"\/sites\/default\/files\/newsletters\/Newsletter1712.pdf"},{"field_newsletter_date":"\u003Ctime datetime=\u00222015-11-01T12:00:00Z\u0022\u003ENovember 2015\u003C\/time\u003E\n","field_newsletter":"\/sites\/default\/files\/newsletters\/Newsletter1511.pdf"},{"field_newsletter_date":"\u003Ctime datetime=\u00222015-10-01T12:00:00Z\u0022\u003EOctober 2015\u003C\/time\u003E\n","field_newsletter":"\/sites\/default\/files\/newsletters\/Newsletter1510.pdf"},{"field_newsletter_date":"\u003Ctime datetime=\u00222015-04-01T12:00:00Z\u0022\u003EApril 2015\u003C\/time\u003E\n","field_newsletter":"\/sites\/default\/files\/newsletters\/Newsletter1504.pdf"},{"field_newsletter_date":"\u003Ctime datetime=\u00222015-02-01T12:00:00Z\u0022\u003EFebruary 2015\u003C\/time\u003E\n","field_newsletter":"\/sites\/default\/files\/newsletters\/Newsletter1502.pdf"},{"field_newsletter_date":"\u003Ctime datetime=\u00222015-01-01T12:00:00Z\u0022\u003EJanuary 2015\u003C\/time\u003E\n","field_newsletter":"\/sites\/default\/files\/newsletters\/Newsletter1501.pdf"},{"field_newsletter_date":"\u003Ctime datetime=\u00222014-12-01T12:00:00Z\u0022\u003EDecember 2014\u003C\/time\u003E\n","field_newsletter":"\/sites\/default\/files\/newsletters\/Newsletter1412.pdf"},{"field_newsletter_date":"\u003Ctime datetime=\u00222014-11-01T12:00:00Z\u0022\u003ENovember 2014\u003C\/time\u003E\n","field_newsletter":"\/sites\/default\/files\/newsletters\/Newsletter1411_0.pdf"},{"field_newsletter_date":"\u003Ctime datetime=\u00222014-10-01T12:00:00Z\u0022\u003EOctober 2014\u003C\/time\u003E\n","field_newsletter":"\/sites\/default\/files\/newsletters\/Newsletter1410.pdf"}],"pager":{"current_page":0,"total_items":"53","total_pages":6,"items_per_page":10}}